{
    "/js/app.js": "/js/app.js?id=c7a31ad1ba90f012eea29005afd6ec51",
    "/js/manifest.js": "/js/manifest.js?id=cbda7e6defb23ba62a96fff34a132c7c",
    "/js/SelectType.js": "/js/SelectType.js?id=1563e28223a4ec007582f5ac5129b26b",
    "/js/DecorThree.js": "/js/DecorThree.js?id=822a4d1a930cc930eca7d43b2e96ab8f",
    "/js/DecorFive.js": "/js/DecorFive.js?id=3902fe4dea509b13cc343207b03be269",
    "/js/Foil.js": "/js/Foil.js?id=fb8bb4472dc9ad6620b11115e552be5f",
    "/js/SelectBalloons.js": "/js/SelectBalloons.js?id=bdb5330ecbf2c03ebea5c3430f7e8264",
    "/js/Bubble.js": "/js/Bubble.js?id=fbd7c1968c5bf73f2e55a62b271534c7",
    "/js/CustomConfirmAddToBasket.js": "/js/CustomConfirmAddToBasket.js?id=6a3938844df4d81ea67e71ee18dd5096",
    "/js/ThreeLatexBalloons.js": "/js/ThreeLatexBalloons.js?id=af4a714602fbe3b1d14c0cef33f26643",
    "/js/FiveLatexBalloons.js": "/js/FiveLatexBalloons.js?id=663f0ce85572798953c3d793a14314d1",
    "/js/FoilBalloon.js": "/js/FoilBalloon.js?id=4e5cb2eccb642d2d2ab91a5668684c68",
    "/js/LatexBalloon.js": "/js/LatexBalloon.js?id=ef89ac5485360c54cd80817bf22294bd",
    "/css/app.css": "/css/app.css?id=6c334de2d1b1e9a1185f81d1079b204e",
    "/js/vendor.js": "/js/vendor.js?id=07fa976a3399b4d79471e836c0704ee8",
    "/css/app.min.css": "/css/app.min.css?id=6c334de2d1b1e9a1185f81d1079b204e"
}
