<svg id="Group_245" data-name="Group 245" xmlns="http://www.w3.org/2000/svg" width="448" height="483" viewBox="0 0 448 483">
  <circle id="Ellipse_6" data-name="Ellipse 6" cx="177.5" cy="177.5" r="177.5" transform="translate(93 78)" fill="#fff2bf"/>
  <circle id="Ellipse_12" data-name="Ellipse 12" cx="113.5" cy="113.5" r="113.5" transform="translate(0 256)" fill="#fff2bf"/>
  <circle id="Ellipse_13" data-name="Ellipse 13" cx="114.5" cy="114.5" r="114.5" transform="translate(41)" fill="#fff2bf"/>
</svg>
