<svg xmlns="http://www.w3.org/2000/svg" width="105" height="248.743" viewBox="0 0 105 248.743">
  <g id="Group_367" data-name="Group 367" transform="translate(0 -1548.257)">
    <path id="Icon_awesome-birthday-cake" data-name="Icon awesome-birthday-cake" d="M105,90c-6.567,0-7.327-7.5-17.461-7.5C77.36,82.5,76.564,90,70.02,90c-6.491,0-7.372-7.5-17.52-7.5C42.459,82.5,41.433,90,35.039,90c-6.6,0-7.313-7.5-17.52-7.5S6.585,90,0,90V71.25A11.253,11.253,0,0,1,11.25,60H15V26.25H30V60H45V26.25H60V60H75V26.25H90V60h3.75A11.253,11.253,0,0,1,105,71.25Zm0,30H0V97.5c10.162,0,10.961-7.5,17.52-7.5s7.325,7.5,17.52,7.5C45.08,97.5,46.106,90,52.5,90c6.6,0,7.313,7.5,17.52,7.5,10.162,0,10.961-7.5,17.52-7.5,6.442,0,7.325,7.5,17.461,7.5ZM22.5,22.5A7.477,7.477,0,0,1,15,15c0-7.266,7.5-5.391,7.5-15C25.313,0,30,6.914,30,13.125S26.66,22.5,22.5,22.5Zm30,0A7.477,7.477,0,0,1,45,15c0-7.266,7.5-5.391,7.5-15C55.313,0,60,6.914,60,13.125S56.66,22.5,52.5,22.5Zm30,0A7.477,7.477,0,0,1,75,15c0-7.266,7.5-5.391,7.5-15C85.313,0,90,6.914,90,13.125S86.66,22.5,82.5,22.5Z" transform="translate(0 1677)" fill="#e73c62"/>
    <g id="Group_366" data-name="Group 366" transform="translate(-100.524 1511.759)">
      <g id="Group_213" data-name="Group 213" transform="translate(149.888 86.537)">
        <path id="Path_2054" data-name="Path 2054" d="M338.075,387.858H337.8a32.081,32.081,0,0,1,.829-7.767,36.514,36.514,0,0,0,0-15.419,36.807,36.807,0,0,1,0-15.533,36.5,36.5,0,0,0,0-15.416,36.8,36.8,0,0,1,0-15.532,31.822,31.822,0,0,0,.823-7.708h.275a32.079,32.079,0,0,1-.829,7.766,36.506,36.506,0,0,0,0,15.417,36.8,36.8,0,0,1,0,15.532,36.51,36.51,0,0,0,0,15.417,36.81,36.81,0,0,1,0,15.533A31.834,31.834,0,0,0,338.075,387.858Z" transform="translate(-337.8 -310.484)" fill="#9aa5b5"/>
      </g>
      <g id="Group_214" data-name="Group 214" transform="translate(133.8 129.658)">
        <path id="Path_2055" data-name="Path 2055" d="M261.424,584.418a10.027,10.027,0,0,1-.475-4.3,10.929,10.929,0,0,0-2.484-7.909,11.2,11.2,0,0,1-2.545-8.1,10.927,10.927,0,0,0-2.484-7.907,11.2,11.2,0,0,1-2.545-8.1,9.681,9.681,0,0,0-.463-4.2l.262-.082a10.026,10.026,0,0,1,.475,4.3,10.925,10.925,0,0,0,2.484,7.907,11.2,11.2,0,0,1,2.544,8.1,10.927,10.927,0,0,0,2.484,7.908,11.2,11.2,0,0,1,2.545,8.1,9.682,9.682,0,0,0,.463,4.2Z" transform="translate(-250.428 -543.82)" fill="#9aa5b5"/>
      </g>
      <g id="Group_215" data-name="Group 215" transform="translate(161.791 112.497)">
        <path id="Path_2056" data-name="Path 2056" d="M402.953,504.808l-.27-.054a16.718,16.718,0,0,1,1.9-5.289,18.7,18.7,0,0,0,2.129-10.747,18.98,18.98,0,0,1,2.16-10.9A18.7,18.7,0,0,0,411,467.071a18.979,18.979,0,0,1,2.16-10.9,16.5,16.5,0,0,0,1.869-5.213l.27.053a16.721,16.721,0,0,1-1.9,5.288,18.7,18.7,0,0,0-2.129,10.745,18.981,18.981,0,0,1-2.16,10.9,18.7,18.7,0,0,0-2.129,10.747,18.98,18.98,0,0,1-2.16,10.9A16.492,16.492,0,0,0,402.953,504.808Z" transform="translate(-402.683 -450.958)" fill="#9aa5b5"/>
      </g>
      <g id="Group_225" data-name="Group 225" transform="translate(107.525 36.497)">
        <g id="Group_219" data-name="Group 219" transform="translate(23.302 0)">
          <path id="Path_2057" data-name="Path 2057" d="M336.294,304.589c1.163.61-.834.247-1.872.188s-3.1.128-1.888-.4c1.408-.619,1-2.745,2.041-2.685S335.1,303.959,336.294,304.589Z" transform="translate(-314.153 -252.679)" fill="#f36"/>
          <path id="Path_2058" data-name="Path 2058" d="M336.3,304.589c-1.2-.63-.682-2.841-1.72-2.9-.636-.036-.731.748-1.032,1.5.038,0-.169.034.9.218.552.095,1.023.876.814,1.018a2.635,2.635,0,0,1-1.239.266,16.457,16.457,0,0,1-1.8-.147c-.374.314,1.3.179,2.2.231C335.464,304.836,337.46,305.2,336.3,304.589Z" transform="translate(-314.157 -252.679)" fill="#f36" style="mix-blend-mode: multiply;isolation: isolate"/>
          <g id="Group_216" data-name="Group 216" transform="translate(17.794 51.643)">
            <path id="Path_2059" data-name="Path 2059" d="M335.894,316.536a.407.407,0,0,1-.41.451,9.873,9.873,0,0,1-4.1-.235.436.436,0,0,1-.382-.506h0a.4.4,0,0,1,.529-.283,9.38,9.38,0,0,0,3.9.224.379.379,0,0,1,.466.35Z" transform="translate(-330.991 -315.946)" fill="#f36"/>
          </g>
          <g id="Group_217" data-name="Group 217" transform="translate(17.794 51.643)" style="mix-blend-mode: multiply;isolation: isolate">
            <path id="Path_2060" data-name="Path 2060" d="M335.894,316.536a.407.407,0,0,1-.41.451,9.873,9.873,0,0,1-4.1-.235.436.436,0,0,1-.382-.506h0a.4.4,0,0,1,.529-.283,9.38,9.38,0,0,0,3.9.224.379.379,0,0,1,.466.35Z" transform="translate(-330.991 -315.946)" fill="#f36"/>
          </g>
          <path id="Path_2061" data-name="Path 2061" d="M234.741,59.563c-.77,13.412,10.554,26.785,20.31,27.344s22.536-11.428,23.306-24.84-8.369-24.846-20.414-25.537S235.511,46.151,234.741,59.563Z" transform="translate(-234.703 -36.497)" fill="#e73c62"/>
          <path id="Path_2062" data-name="Path 2062" d="M362.866,77.405C356.422,98.33,343.361,97.646,344.5,97.711c9.756.56,22.536-11.428,23.306-24.84.577-10.044-4.4-18.977-12-23.121C355.8,49.75,368.616,58.734,362.866,77.405Z" transform="translate(-324.151 -47.301)" fill="#f36" style="mix-blend-mode: multiply;isolation: isolate"/>
          <g id="Group_218" data-name="Group 218" transform="translate(2.245 2.523)" opacity="0.5">
            <path id="Path_2063" data-name="Path 2063" d="M249.722,61.092c-2.19,4.3-3.5,9.62-2.569,13.885.356,1.637,5.415-.059,5.761-1.958,3.227-17.76,11.7-19.674,11.916-21.332.3-2.308-3.852-1.511-5.386-.837C255.447,52.606,251.912,56.792,249.722,61.092Z" transform="translate(-246.85 -50.15)" fill="#fff" opacity="0.5"/>
          </g>
        </g>
        <g id="Group_221" data-name="Group 221" transform="translate(0 42.678)">
          <path id="Path_2064" data-name="Path 2064" d="M237.3,537.313c1.256.384-.774.4-1.805.531s-3.02.7-1.931-.048c1.269-.87.477-2.883,1.509-3.016S236,536.916,237.3,537.313Z" transform="translate(-210.01 -485.963)" fill="#f36"/>
          <path id="Path_2065" data-name="Path 2065" d="M237.3,537.313c-1.295-.4-1.2-2.666-2.227-2.533-.632.082-.58.87-.736,1.667.037-.009-.16.065.929.047.56-.009,1.168.672.989.849a2.636,2.636,0,0,1-1.169.492,16.347,16.347,0,0,1-1.8.189c-.31.378,1.31-.064,2.208-.181C236.527,537.711,238.556,537.7,237.3,537.313Z" transform="translate(-210.015 -485.963)" fill="#f36" style="mix-blend-mode: multiply;isolation: isolate"/>
          <g id="Group_220" data-name="Group 220" transform="translate(23.029 51.28)">
            <path id="Path_2066" data-name="Path 2066" d="M237,548.418a.406.406,0,0,1-.319.519,9.864,9.864,0,0,1-4.074.528.436.436,0,0,1-.469-.427h0a.4.4,0,0,1,.468-.376,9.384,9.384,0,0,0,3.873-.5.379.379,0,0,1,.522.257Z" transform="translate(-232.14 -548.135)" fill="#f36"/>
          </g>
          <path id="Path_2067" data-name="Path 2067" d="M107.752,297.742c1.725,13.324,15.328,24.369,25.019,23.115s20.033-15.4,18.308-28.724-12.822-22.868-24.787-21.319S106.027,284.419,107.752,297.742Z" transform="translate(-107.525 -270.649)" fill="#e73c62"/>
          <path id="Path_2068" data-name="Path 2068" d="M258.12,301.837c-2.461,21.756-15.423,23.5-14.293,23.354,9.692-1.255,20.033-15.4,18.308-28.724-1.292-9.977-7.839-17.835-16.071-20.5C246.063,275.966,260.317,282.424,258.12,301.837Z" transform="translate(-218.581 -274.983)" fill="#f36" style="mix-blend-mode: multiply;isolation: isolate"/>
          <path id="Path_2069" data-name="Path 2069" d="M128.2,327.289c1.727,2.424,3.6-4.481,3.037-5.525-8.47-15.625,1.738-28.54,1.169-28.107C125.452,298.956,117.834,312.736,128.2,327.289Z" transform="translate(-120.242 -289.396)" fill="#fff" opacity="0.5"/>
        </g>
        <g id="Group_224" data-name="Group 224" transform="translate(46.288 27.135)">
          <path id="Path_2070" data-name="Path 2070" d="M457.444,453.187c1.145.643-.841.223-1.878.134s-3.1.038-1.876-.459c1.426-.578,1.082-2.714,2.118-2.624S456.263,452.523,457.444,453.187Z" transform="translate(-436.099 -401.289)" fill="#f36"/>
          <path id="Path_2071" data-name="Path 2071" d="M457.448,453.187c-1.181-.664-.6-2.86-1.636-2.949-.635-.055-.752.726-1.075,1.471.038,0-.17.029.9.244.549.111,1,.906.784,1.042a2.632,2.632,0,0,1-1.247.23,16.376,16.376,0,0,1-1.8-.2c-.383.3,1.294.217,2.2.3C456.608,453.41,458.593,453.831,457.448,453.187Z" transform="translate(-436.103 -401.289)" fill="#f36" style="mix-blend-mode: multiply;isolation: isolate"/>
          <g id="Group_222" data-name="Group 222" transform="translate(16.997 51.517)">
            <path id="Path_2072" data-name="Path 2072" d="M457.024,464.866a.407.407,0,0,1-.423.439,9.868,9.868,0,0,1-4.093-.354.435.435,0,0,1-.367-.516h0a.4.4,0,0,1,.537-.268,9.39,9.39,0,0,0,3.89.337.38.38,0,0,1,.456.363Z" transform="translate(-452.129 -464.145)" fill="#f36"/>
          </g>
          <g id="Group_223" data-name="Group 223" transform="translate(16.997 51.517)" style="mix-blend-mode: multiply;isolation: isolate">
            <path id="Path_2073" data-name="Path 2073" d="M457.024,464.866a.407.407,0,0,1-.423.439,9.868,9.868,0,0,1-4.093-.354.435.435,0,0,1-.367-.516h0a.4.4,0,0,1,.537-.268,9.39,9.39,0,0,0,3.89.337.38.38,0,0,1,.456.363Z" transform="translate(-452.129 -464.145)" fill="#f36"/>
          </g>
          <path id="Path_2074" data-name="Path 2074" d="M360.242,207.807c-1.158,13.384,9.775,27.078,19.511,27.92s22.857-10.772,24.014-24.156-7.647-25.077-19.667-26.117S361.4,194.423,360.242,207.807Z" transform="translate(-360.157 -185.38)" fill="#e73c62"/>
          <path id="Path_2075" data-name="Path 2075" d="M484.833,228.016c-7.046,20.73-20.082,19.669-18.947,19.767,9.736.842,22.857-10.772,24.014-24.156.867-10.023-3.853-19.1-11.327-23.458C478.574,200.169,491.121,209.52,484.833,228.016Z" transform="translate(-446.29 -197.436)" fill="#f36" style="mix-blend-mode: multiply;isolation: isolate"/>
          <path id="Path_2076" data-name="Path 2076" d="M395.928,215.183c-2.808,4.6-2.009,9.835.972,11.654s3.9-3.872,6.709-8.472,6.442-6.367,3.461-8.187S398.737,210.582,395.928,215.183Z" transform="translate(-387.903 -205.078)" fill="#fcc" opacity="0.5"/>
        </g>
      </g>
    </g>
  </g>
</svg>
